Name,Most Frequent Emotion,partei,geschlecht
Weidel,happy,Afd,W
Mohamed Ali,sad,Linke,W
Duerr,sad,Fdp,M
Merz,angry,Cdu,M
Chrupalla,angry,Afd,M
Merz,angry,Cdu,M
Weidel,fear,Afd,W
Duerr,sad,Fdp,M
Weidel,happy,Afd,W
Bartsch,angry,Linke,M
Bartsch,angry,Linke,M
Muetzenich,sad,Spd,M
Duerr,sad,Fdp,M
Merz,angry,Cdu,M
Weidel,fear,Afd,W
Droege,happy,Gruenen,W
Muetzenich,angry,Spd,M
Duerr,happy,Fdp,M
Haselmann,angry,Gruenen,W
Droege,sad,Gruenen,W
Mohamed Ali,sad,Linke,W
Weidel,sad,Afd,W
Weidel,fear,Afd,W
Merz,happy,Cdu,M
Bartsch,angry,Linke,M
Chrupalla,angry,Afd,M
Haselmann,fear,Gruenen,W
Merz,happy,Cdu,M
Droege,fear,Gruenen,W
Duerr,fear,Fdp,M
Weidel,fear,Afd,W
Duerr,fear,Fdp,M
Chrupalla,angry,Afd,M
Bartsch,angry,Linke,M
Merz,neutral,Cdu,M
Mohamed Ali,fear,Linke,W
Chrupalla,angry,Afd,M
Mohamed Ali,fear,Linke,W
Duerr,angry,Fdp,M
Muetzenich,angry,Spd,M
Merz,sad,Cdu,M
Bartsch,happy,Linke,M
Droege,fear,Gruenen,W
Haselmann,angry,Gruenen,W
Mohamed Ali,sad,Linke,W
Duerr,sad,Fdp,M
Chrupalla,sad,Afd,M
Weidel,neutral,Afd,W
Droege,neutral,Gruenen,W
Mohamed Ali,sad,Linke,W
Haselmann,fear,Gruenen,W
Bartsch_Start,,Linke,M
Chrupalla,neutral,Afd,M
Bartsch_Ende,,Linke,M
Bartsch,neutral,Linke,M
Mohamed Ali,fear,Linke,W
Merz,angry,Cdu,M
Muetzenich,sad,Spd,M
Bartsch,happy,Linke,M
Haselmann,fear,Gruenen,W
Chrupalla,sad,Afd,M
Haselmann,angry,Gruenen,W
Duerr,happy,Fdp,M
Droege,happy,Gruenen,W
Mohamed Ali,sad,Linke,W
Chrupalla,neutral,Afd,M
Muetzenich,angry,Spd,M
Weidel,neutral,Afd,W
Droege,neutral,Gruenen,W
Haselmann,angry,Gruenen,W
Muetzenich,fear,Spd,M
Muetzenich,neutral,Spd,M
Merz,fear,Cdu,M
Droege,neutral,Gruenen,W
Muetzenich,sad,Spd,M
Haselmann,neutral,Gruenen,W
Merz,,Cdu,M
Haselmann,fear,Gruenen,W
Mohamed Ali,sad,Linke,W
Bartsch,sad,Linke,M
Mohamed Ali,fear,Linke,W
Muetzenich,angry,Spd,M
Chrupalla,neutral,Afd,M
Haselmann,neutral,Gruenen,W
Duerr,sad,Fdp,M
Droege,happy,Gruenen,W
Chrupalla,angry,Afd,M
Bartsch,neutral,Linke,M
Droege,fear,Gruenen,W
Bartsch,neutral,Linke,M
Muetzenich,neutral,Spd,M
Weidel,neutral,Afd,W
